sentence: The boy desires the girl to believe him.
AMR: (w / want-01 :ARG0 (b / boy) :ARG1 (b2 / believe-01 :ARG0 (g / girl) :ARG1 b)) 

sentence: The boy desires to be believed by the girl.
AMR: (w / want-01 :ARG0 (b / boy) :ARG1 (b2 / believe-01 :ARG0 (g / girl) :ARG1 b)) 

sentence: The boy has a desire to be believed by the girl.
AMR: (w / want-01 :ARG0 (b / boy) :ARG1 (b2 / believe-01 :ARG0 (g / girl) :ARG1 b)) 

sentence: The boy’s desire is for the girl to believe him.
AMR: (w / want-01 :ARG0 (b / boy) :ARG1 (b2 / believe-01 :ARG0 (g / girl) :ARG1 b)) 

sentence: The boy is desirous of the girl believing him.
AMR: (w / want-01 :ARG0 (b / boy) :ARG1 (b2 / believe-01 :ARG0 (g / girl) :ARG1 b)) 

sentence: The girl made adjustments to the machine.
AMR: (a / adjust-01 :ARG0 (b / girl) :ARG1 (m / machine)) 

sentence: The girl adjusted the machine.
AMR: (a / adjust-01 :ARG0 (b / girl) :ARG1 (m / machine)) 

sentence: The machine was adjusted by the girl.
AMR: (a / adjust-01 :ARG0 (b / girl) :ARG1 (m / machine)) 

sentence: The killing happened yesterday.
AMR: (k / kill-01 :time (y / yesterday)) 

sentence: The killing took place yesterday.
AMR: (k / kill-01 :time (y / yesterday)) 

sentence: the boy and the girl
AMR: (a / and :op1 (b / boy) :op2 (g / girl)) 

sentence: both the boy and the girl
AMR: (a / and :op1 (b / boy) :op2 (g / girl)) 

sentence: his boat
AMR: (b / boat :poss (h / he)) 

sentence: his own boat
AMR: (b / boat :poss (h / he)) 

sentence: The boy must not go.
AMR: (o / obligate-01 :ARG2 (g / go-02 :ARG0 (b / boy) :polarity -)) 

sentence: It is obligatory that the boy not go.
AMR: (o / obligate-01 :ARG2 (g / go-02 :ARG0 (b / boy) :polarity -)) 

sentence: The boy may not go.
AMR: (p / permit-01 :ARG1 (g / go-02 :ARG0 (b / boy)) :polarity -) 

sentence: The boy is not permitted to go.
AMR: (p / permit-01 :ARG1 (g / go-02 :ARG0 (b / boy)) :polarity -) 

sentence: It is not permissible for the boy to go.
AMR: (p / permit-01 :ARG1 (g / go-02 :ARG0 (b / boy)) :polarity -) 

sentence: The boy does not have permission to go.
AMR: (p / permit-01 :ARG1 (g / go-02 :ARG0 (b / boy)) :polarity -) 

sentence: The marble is white.
AMR: (w / white-03 :ARG1 (m / marble)) 

sentence: the whiteness of the marble
AMR: (w / white-03 :ARG1 (m / marble)) 

sentence: the white marble
AMR: (m / marble :ARG1-of (w / white-03)) 

sentence: the marble that is white
AMR: (m / marble :ARG1-of (w / white-03)) 

sentence: The boy sees that the marble is white.
AMR: (s / see-01 :ARG0 (b / boy) :ARG1 (w / white-03 :ARG1 (m / marble))) 

sentence: The boy sees the whiteness of the marble.
AMR: (s / see-01 :ARG0 (b / boy) :ARG1 (w / white-03 :ARG1 (m / marble))) 

sentence: The boy sees the white marble.
AMR: (s / see-01 :ARG0 (b / boy) :ARG1 (m / marble :ARG1-of (w / white-03))) 

sentence: The boy sees the marble that is white.
AMR: (s / see-01 :ARG0 (b / boy) :ARG1 (m / marble :ARG1-of (w / white-03))) 

sentence: The boy saw the girl who wanted him.
AMR: (s / see-01 :ARG0 (b / boy) :ARG1 (g / girl :ARG0-of (w / want-01 :ARG1 b))) 

sentence: The boy saw the girl who he was wanted by.
AMR: (s / see-01 :ARG0 (b / boy) :ARG1 (g / girl :ARG0-of (w / want-01 :ARG1 b))) 

sentence: The girl who wanted the boy was seen by him.
AMR: (s / see-01 :ARG0 (b / boy) :ARG1 (g / girl :ARG0-of (w / want-01 :ARG1 b))) 

sentence: The girl who was seen by the boy wants him.
AMR: (w / want-01 :ARG0 (g / girl :ARG1-of (s / see-01 :ARG0 (b / boy))) :ARG1 b) 

sentence: The boy is wanted by the girl he saw.
AMR: (w / want-01 :ARG0 (g / girl :ARG1-of (s / see-01 :ARG0 (b / boy))) :ARG1 b) 

sentence: The regulatory documents were changed.
AMR: (c / change-01 :ARG1 (d / document :instrument-of (r / regulate-01))) 

sentence: The boy wants to believe.
AMR: (w / want-01 :ARG0 (b / boy) :ARG1 (b2 / believe-01 :ARG0 b)) 

sentence: The boy believes.
AMR: (b / believe-01 :ARG0 (b2 / boy)) 

sentence: He described the mission as a failure.
AMR: (d / describe-01 :ARG0 (h / he) :ARG1 (m / mission) :ARG2 (f / fail-01)) 

sentence: As he described it, the mission was a failure.
AMR: (d / describe-01 :ARG0 (h / he) :ARG1 (m / mission) :ARG2 (f / fail-01)) 

sentence: His description of the mission: failure.
AMR: (d / describe-01 :ARG0 (h / he) :ARG1 (m / mission) :ARG2 (f / fail-01)) 

sentence: a band of marauders
AMR: (b / band :consist-of (p / person :ARG0-of (m / maraud-00))) 

sentence: The boy can go.
AMR: (p / possible-01 :ARG1 (g / go-02 :ARG0 (b / boy))) 

sentence: It is possible that the boy goes.
AMR: (p / possible-01 :ARG1 (g / go-02 :ARG0 (b / boy))) 

sentence: The boy must go.
AMR: (o / obligate-01 :ARG2 (g / go-02 :ARG0 (b / boy))) 

sentence: The boy is obligated to go.
AMR: (o / obligate-01 :ARG2 (g / go-02 :ARG0 (b / boy))) 

sentence: It is obligatory that the boy go.
AMR: (o / obligate-01 :ARG2 (g / go-02 :ARG0 (b / boy))) 

sentence: The boy may go.
AMR: (o / permit-01 :ARG1 (g / go-02 :ARG0 (b / boy))) 

sentence: The boy is permitted to go.
AMR: (o / permit-01 :ARG1 (g / go-02 :ARG0 (b / boy))) 

sentence: It is permissible that the boy go.
AMR: (o / permit-01 :ARG1 (g / go-02 :ARG0 (b / boy))) 

sentence: It may rain.
AMR: (p / possible-01 :ARG1 (r / rain-01)) 

sentence: It might rain.
AMR: (p / possible-01 :ARG1 (r / rain-01)) 

sentence: Rain is possible.
AMR: (p / possible-01 :ARG1 (r / rain-01)) 

sentence: It’s possible that it will rain.
AMR: (p / possible-01 :ARG1 (r / rain-01)) 

sentence: The boy should go.
AMR: (r / recommend-01 :ARG1 (g / go-02 :ARG0 (b / boy))) 

sentence: It is recommended that the boy go.
AMR: (r / recommend-01 :ARG1 (g / go-02 :ARG0 (b / boy))) 

sentence: The boy is likely to go.
AMR: (l / likely-01 :ARG1 (g / go-02 :ARG0 (b / boy))) 

sentence: It is likely that the boy will go.
AMR: (l / likely-01 :ARG1 (g / go-02 :ARG0 (b / boy))) 

sentence: The boy would rather go.
AMR: (p / prefer-01 :ARG0 (b / boy) :ARG1 (g / go-02 :ARG0 b)) 

sentence: The boy prefers to go.
AMR: (p / prefer-01 :ARG0 (b / boy) :ARG1 (g / go-02 :ARG0 b)) 

sentence: I am used to working.
AMR: (u / use-02 :ARG0 (i / i) :ARG1 (w / work-01 :ARG0 i)) 

sentence: The boy doesn’t go.
AMR: (g / go-02 :ARG0 (b / boy) :polarity -) 

sentence: The boy can’t go.
AMR: (p / possible-01 :ARG1 (g / go-02 :ARG0 (b / boy)) :polarity -) 

sentence: It’s not possible for the boy to go.
AMR: (p / possible-01 :ARG1 (g / go-02 :ARG0 (b / boy)) :polarity -) 

sentence: It is possible for the boy not to go.
AMR: (p / possible-01 :ARG1 (g / go-02 :ARG0 (b / boy) :polarity -)) 

sentence: It is possible for the boy to not go.
AMR: (p / possible-01 :ARG1 (g / go-02 :ARG0 (b / boy) :polarity -)) 

sentence: The boy doesn’t have to go.
AMR: (p / obligate-01 :ARG2 (g / go-02 :ARG0 (b / boy)) :polarity -) 

sentence: It’s not necessary for the boy to go.
AMR: (p / obligate-01 :ARG2 (g / go-02 :ARG0 (b / boy)) :polarity -) 

sentence: The boy must not go.
AMR: (p / obligate-01 :ARG2 (g / go-02 :ARG0 (b / boy) :polarity -)) 

sentence: It’s obligatory that the boy not go.
AMR: (p / obligate-01 :ARG2 (g / go-02 :ARG0 (b / boy) :polarity -)) 

sentence: The boy thinks his team won’t win.
AMR: (t / think-01 :ARG0 (b / boy) :ARG1 (w / win-01 :ARG0 (t2 / team :poss b) :polarity -)) 

sentence: The boy doesn’t think his team will win.
AMR: (t / think-01 :ARG0 (b / boy) :ARG1 (w / win-01 :ARG0 (t2 / team :poss b) :polarity -)) 

sentence: It’s not true that the boy thinks his team will win.
AMR: (t / think-01 :ARG0 (b / boy) :ARG1 (w / win-01 :ARG0 (t2 / team :poss b)) :polarity -) 

sentence: The boy doesn’t think his team will win.
AMR: (t / think-01 :ARG0 (b / boy) :ARG1 (w / win-01 :ARG0 (t2 / team :poss b)) :polarity -) 

sentence: I don’t have any money.
AMR: (h / have-03 :polarity - :ARG0 (i / i) :ARG1 (m / money)) 

sentence: I have no money.
AMR: (h / have-03 :polarity - :ARG0 (i / i) :ARG1 (m / money)) 

sentence: the dress is inappropriate
AMR: (a / appropriate-02 :polarity - :ARG1 (d / dress)) 

sentence: the dress is not appropriate
AMR: (a / appropriate-02 :polarity - :ARG1 (d / dress)) 

sentence: the inappropriate dress
AMR: (d / dress :ARG1-of (a / appropriate-02 :polarity -)) 

sentence: the dress that is inappropriate
AMR: (d / dress :ARG1-of (a / appropriate-02 :polarity -)) 

sentence: the dress that is not appropriate
AMR: (d / dress :ARG1-of (a / appropriate-02 :polarity -)) 

sentence: What did the girl find?
AMR: (f / find-01 :ARG0 (g / girl) :ARG1 (a / amr-unknown)) 

sentence: Where did the girl find the boy?
AMR: (f / find-01 :ARG0 (g / girl) :ARG1 (b / boy) :location (a / amr-unknown)) 

sentence: How did the girl find the boy?
AMR: (f / find-01 :ARG0 (g / girl) :ARG1 (b / boy) :manner (a / amr-unknown)) 

sentence: Whose toy did the girl find?
AMR: (f / find-01 :ARG0 (g / girl) :ARG1 (t / toy :poss (a / amr-unknown))) 

sentence: How fast did the girl run?
AMR: (r / run-01 :ARG0 (g / girl) :manner (f / fast :degree (a / amr-unknown))) 

sentence: What purple thing did the girl see?
AMR: (s / see-01 :ARG0 (g / girl) :ARG1 (a / amr-unknown :ARG1-of (p / purple-02))) 

sentence: Which investigation did she lead?
AMR: (l / lead-01 :ARG0 (s / she) :ARG1 (a / amr-unknown :domain (i / investigate-01))) 

sentence: Did the girl find the boy?
AMR: (f / find-01 :ARG0 (g / girl) :ARG1 (b / boy) :polarity (a / amr-unknown)) 

sentence: Was the boy found?
AMR: (f / find-01 :ARG1 (b / boy) :polarity (a / amr-unknown)) 

sentence: I know who you saw.
AMR: (k / know-02 :ARG0 (i / i) :ARG1 (p / person :ARG1-of (s / see-01 :ARG0 (y / you)))) 

sentence: I know the person you saw.
AMR: (k / know-02 :ARG0 (i / i) :ARG1 (p / person :ARG1-of (s / see-01 :ARG0 (y / you)))) 

sentence: The boy doesn’t know whether the girl came.
AMR: (k / know-01 :polarity - :ARG0 (b / boy) :ARG1 (t / truth-value :polarity-of (c / come-01 :ARG1 (g / girl)))) 

sentence: The boy doesn’t know if the girl came.
AMR: (k / know-01 :polarity - :ARG0 (b / boy) :ARG1 (t / truth-value :polarity-of (c / come-01 :ARG1 (g / girl)))) 

sentence: The boy doesn’t know that the girl came.
AMR: (k / know-01 :polarity - :ARG0 (b / boy) :ARG1 (c / come-01 :ARG1 (g / girl))) 

sentence: The boy doesn’t know the girl came.
AMR: (k / know-01 :polarity - :ARG0 (b / boy) :ARG1 (c / come-01 :ARG1 (g / girl))) 

sentence: Do you want tea or coffee?
AMR: (w / want-01 :ARG0 (y / you) :ARG1 (a / amr-choice :op1 (t / tea) :op2 (c / coffee))) 

sentence: Should I stay or should I go?
AMR: (r / recommend-01 :ARG1 (a / amr-choice :op1 (s / stay-01 :ARG1 (i / i)) :op2 (g / go-02 :ARG0 i))) 

sentence: Go.
AMR: (g / go-02 :mode imperative :ARG0 (y / you)) 

sentence: Go!
AMR: (g / go-02 :mode imperative :ARG0 (y / you)) 

sentence: Let’s go.
AMR: (g / go-02 :mode imperative :ARG0 (w / we)) 

sentence: Let’s go!
AMR: (g / go-02 :mode imperative :ARG0 (w / we)) 

sentence: Yippee!
AMR: (y / yippee :mode expressive) 

sentence: Yes!!!
AMR: (y / yes :mode expressive) 

sentence: The boy went.
AMR: (g / go-02 :ARG0 (b / boy)) 

sentence: The boys went.
AMR: (g / go-02 :ARG0 (b / boy)) 

sentence: A boy went.
AMR: (g / go-02 :ARG0 (b / boy)) 

sentence: The boy goes.
AMR: (g / go-02 :ARG0 (b / boy)) 

sentence: The boy will go.
AMR: (g / go-02 :ARG0 (b / boy)) 

sentence: that boy
AMR: (b / boy :mod (t / that)) 

sentence: those boys
AMR: (b / boy :mod (t / that)) 

sentence: this boy
AMR: (b / boy :mod (t / this)) 

sentence: these boys
AMR: (b / boy :mod (t / this)) 

sentence: that is a shame.
AMR: (s / shame :domain (t / that)) 

sentence: money-market account
AMR: (a / account :mod (m / market :mod (m2 / money))) 

sentence: vice-president
AMR: (p / president :mod (v / vice)) 

sentence: vice president
AMR: (p / president :mod (v / vice)) 

sentence: brother-in-law
AMR: (b / brother-in-law) 

sentence: He was charged with public intoxication and resisting arrest.
AMR: (c / charge-05 :ARG1 (h / he) :ARG2 (a / and :op1 (i / intoxicate-01 :ARG1 h :location (p / public)) :op2 (r / resist-01 :ARG0 h :ARG1 (a2 / arrest-01 :ARG1 h)))) 

sentence: the hopeful girl
AMR: (h / hopeful-03 :ARG1 (g / girl)) 

sentence: The marble is small.
AMR: (s / small :domain (m / marble)) 

sentence: The man is a lawyer.
AMR: (l / lawyer :domain (m / man)) 

sentence: the man who is a lawyer
AMR: (m / man :mod (l / lawyer)) 

sentence: the boy
AMR: (b / boy) 

sentence: There is a boy.
AMR: (b / boy) 

sentence: four boys making pies
AMR: (b / boy :quant 4 :ARG0-of (m / make-01 :ARG1 (p / pie))) 

sentence: There are four boys making pies.
AMR: (b / boy :quant 4 :ARG0-of (m / make-01 :ARG1 (p / pie))) 

sentence: The boy destroyed the room.
AMR: (d / destroy-01 :ARG0 (b / boy) :ARG1 (r / room)) 

sentence: The boy’s destruction of the room
AMR: (d / destroy-01 :ARG0 (b / boy) :ARG1 (r / room)) 

sentence: The destruction of the room by the boy
AMR: (d / destroy-01 :ARG0 (b / boy) :ARG1 (r / room)) 

sentence: the explosion
AMR: (e / explode-01) 

sentence: the proposal
AMR: (t / thing :ARG1-of (p / propose-01)) 

sentence: the thing proposed
AMR: (t / thing :ARG1-of (p / propose-01)) 

sentence: what got proposed
AMR: (t / thing :ARG1-of (p / propose-01)) 

sentence: the boy’s opinion
AMR: (t / thing :ARG1-of (o / opine-01 :ARG0 (b / boy))) 

sentence: the opinion of the boy
AMR: (t / thing :ARG1-of (o / opine-01 :ARG0 (b / boy))) 

sentence: that which was opined by the boy
AMR: (t / thing :ARG1-of (o / opine-01 :ARG0 (b / boy))) 

sentence: what the boy opined
AMR: (t / thing :ARG1-of (o / opine-01 :ARG0 (b / boy))) 

sentence: chip maker
AMR: (o / organization :ARG0-of (m / make-01 :ARG1 (c / chip))) 

sentence: maker of chips
AMR: (o / organization :ARG0-of (m / make-01 :ARG1 (c / chip))) 

sentence: investor
AMR: (p / person :ARG0-of (i / invest-01)) 

sentence: bond investor
AMR: (p / person :ARG0-of (i / invest-01 :ARG2 (b / bond))) 

sentence: small investor
AMR: (p / person :ARG0-of (i / invest-01 :mod (s / small))) 

sentence: nerdy investor
AMR: (p / person :ARG0-of (i / invest-01) :mod (n / nerd)) 

sentence: treasurer
AMR: (t / treasurer) 

sentence: president
AMR: (p / president) 

sentence: the boy is a hard worker
AMR: (w / work-01 :ARG0 (b / boy) :manner (h / hard-02)) 

sentence: the boy works hard
AMR: (w / work-01 :ARG0 (b / boy) :manner (h / hard-02)) 

sentence: the attractive man
AMR: (m / man :ARG0-of (a / attract-01)) 

sentence: the man is attractive
AMR: (a / attract-01 :ARG0 (m / man)) 

sentence: the man attracts
AMR: (a / attract-01 :ARG0 (m / man)) 

sentence: the man is attractive to women
AMR: (a / attract-01 :ARG0 (m / man) :ARG1 (w / woman)) 

sentence: the man attracts women
AMR: (a / attract-01 :ARG0 (m / man) :ARG1 (w / woman)) 

sentence: The soldier was aware of the battle.
AMR: (a / realize-01 :ARG0 (s / soldier) :ARG1 (b / battle)) 

sentence: The soldier realized there was a battle.
AMR: (a / realize-01 :ARG0 (s / soldier) :ARG1 (b / battle)) 

sentence: The boy is responsible for the work.
AMR: (r / responsible-03 :ARG0 (b / boy) :ARG1 (w / work)) 

sentence: The boy is responsible for doing the work.
AMR: (r / responsible-03 :ARG0 (b / boy) :ARG1 (w / work)) 

sentence: The boy has the responsibility for the work.
AMR: (r / responsible-03 :ARG0 (b / boy) :ARG1 (w / work)) 

sentence: The girl is sad.
AMR: (s / sad-02 :ARG1 (g / girl)) 

sentence: The girl was saddened by the disaster.
AMR: (s / sadden-01 :ARG0 (d / disaster) :ARG1 (g / girl)) 

sentence: The disaster saddened the girl.
AMR: (s / sadden-01 :ARG0 (d / disaster) :ARG1 (g / girl)) 

sentence: the boy is acquainted with magic
AMR: (a / acquaint-01 :ARG1 (b / boy) :ARG2 (m / magic)) 

sentence: Boys want to please.
AMR: (w / want-01 :ARG0 (b / boy) :ARG1 (p / please-01 :ARG0 b)) 

sentence: Girls are easy to please.
AMR: (e / easy-05 :ARG1 (p / please-01 :ARG1 (g / girl))) 

sentence: It is easy to please girls.
AMR: (e / easy-05 :ARG1 (p / please-01 :ARG1 (g / girl))) 

sentence: Pleasing girls is easy.
AMR: (e / easy-05 :ARG1 (p / please-01 :ARG1 (g / girl))) 

sentence: an edible sandwich
AMR: (s / sandwich :ARG1-of (e / eat-01 :ARG1-of (p / possible-01))) 

sentence: a sandwich that can be eaten
AMR: (s / sandwich :ARG1-of (e / eat-01 :ARG1-of (p / possible-01))) 

sentence: a sandwich that it is possible to eat
AMR: (s / sandwich :ARG1-of (e / eat-01 :ARG1-of (p / possible-01))) 

sentence: an inedible sandwich
AMR: (s / sandwich :ARG1-of (e / eat-01 :ARG1-of (p / possible-01 :polarity -))) 

sentence: a taxable fund
AMR: (f / fund :ARG3-of (t / tax-01)) 

sentence: I observed that the army moved quickly.
AMR: (o / observe-01 :ARG0 (i / i) :ARG1 (m / move-01 :ARG0 (a / army) :manner (q / quick-02))) 

sentence: I observed the quick movement of the army
AMR: (o / observe-01 :ARG0 (i / i) :ARG1 (m / move-01 :ARG0 (a / army) :manner (q / quick-02))) 

sentence: I observed the army moving quickly.
AMR: (o / observe-01 :ARG0 (i / i) :ARG1 (m / move-01 :ARG0 (a / army) :manner (q / quick-02))) 

sentence: I hardly know her.
AMR: (k / know-01 :ARG0 (i / i) :ARG1 (s / she) :degree (h / hardly)) 

sentence: He drove west, from Houston to Austin.
AMR: (d / drive-01 :ARG0 (h / he) :direction (w / west) :source (c / city :wiki "Houston" :name (n / name :op1 "Houston")) :destination (c2 / city :wiki "Austin,_Texas" :name (n2 / name :op1 "Austin"))) 

sentence: I drove to Indianapolis on I-65.
AMR: (d / drive-01 :ARG0 (i / i) :destination (c / city :wiki "Indianapolis" :name (n / name :op1 "Indianapolis")) :path (r / road :wiki "Interstate_65" :name (n2 / name :op1 "I-65"))) 

sentence: I drove through the tunnel.
AMR: (d / drive-01 :ARG0 (i / i) :path (t / tunnel)) 

sentence: The soldier hummed a tune for the girl as he walked with her to town.
AMR: (s / hum-02 :ARG0 (s2 / soldier) :ARG1 (t2 / tune) :beneficiary (g / girl) :time (w / walk-01 :ARG0 g :accompanier s2 :destination (t / town))) 

sentence: There is no information about the case.
AMR: (i / information :polarity - :topic (c / case)) 

sentence: USC Associate Professor for Mathematics Jay Bartroff
AMR: (p / person :wiki - :name (n / name :op1 "Jay" :op2 "Bartroff") :ARG0-of (h / have-org-role-91 :ARG1 (u / university :wiki "University_of_Southern_California" :name (n2 / name :op1 "USC")) :ARG2 (p2 / professor :mod (a / associate) :topic (m / mathematics)))) 

sentence: He worked for two hours.
AMR: (w / work-01 :ARG0 (h / he) :duration (t / temporal-quantity :quant 2 :unit (h2 / hour))) 

sentence: I ate pasta with a fork.
AMR: (e / eat-01 :ARG0 (i / i) :ARG1 (p / pasta) :instrument (f / fork)) 

sentence: Iraq launched a missile attack.
AMR: (a / attack-01 :ARG0 (c / country :wiki "Iraq" :name (n / name :op1 "Iraq")) :instrument (m / missile)) 

sentence: She talked to him in French.
AMR: (t / talk-01 :ARG0 (s / she) :ARG2 (h / he) :medium (l / language :wiki "French_language" :name (n / name :op1 "French"))) 

sentence: John announced the birth of his son on Twitter.
AMR: (a / announce-01 :ARG0 (p / person :wiki - :name (n / name :op1 "John")) :ARG1 (b / bear-02 :ARG1 (p2 / person :ARG0-of (h / have-rel-role-91 :ARG1 p :ARG2 (s / son)))) :medium (p3 / product :wiki "Twitter" :name (n2 / name :op1 "Twitter"))) 

sentence: The boy sang very beautifully.
AMR: (s / sing-01 :ARG0 (b / boy) :manner (b2 / beautiful-02 :degree (v / very))) 

sentence: He decorated the room in a creative way.
AMR: (d / decorate-01 :ARG0 (h / he) :ARG1 (r / room) :manner (c / creative)) 

sentence: The mayor proposed to lower crime by hiring more police officers.
AMR: (p / propose-01 :ARG0 (p3 / person :ARG0-of (h2 / have-org-role-91 :ARG2 (m / mayor))) :ARG1 (l / lower-05 :ARG1 (c / crime) :manner (h / hire-01 :ARG2 (p4 / person :ARG0-of (h3 / have-org-role-91 :ARG1 (p2 / police) :ARG2 (o / officer)) :mod (m2 / more))))) 

sentence: Nicole went to England by train.
AMR: (g / go-02 :ARG0 (p / person :wiki - :name (n / name :op1 "Nicole")) :ARG4 (c / country :wiki "England" :name (n2 / name :op1 "England")) :manner (t / train)) 

sentence: He went to the store to buy wood for a new fence.
AMR: (g / go-02 :ARG0 (h / he) :ARG4 (s / store) :purpose (b / buy-01 :ARG0 h :ARG1 (w / wood :purpose (f / fence :mod (n / new))))) 

sentence: The boy murmured softly to soothe the girl, because he worried about her.
AMR: (m / murmur-01 :ARG0 (b / boy) :manner (s / soft-02) :purpose (s2 / soothe-01 :ARG1 (g / girl)) :cause (w / worry-01 :ARG0 b :topic g)) 

sentence: The game continued although it rained.
AMR: (c / continue-01 :ARG1 (g / game) :concession (r / rain-01)) 

sentence: The game continued despite the rain.
AMR: (c / continue-01 :ARG1 (g / game) :concession (r / rain-01)) 

sentence: The game will continue even if it rains.
AMR: (c / continue-01 :ARG1 (g / game) :concession (e / even-if :op1 (r / rain-01))) 

sentence: They feared him even when he was behind bars.
AMR: (f / fear-01 :ARG0 (t / they) :ARG1 (h / he) :concession (e / even-when :op1 (i / imprison-01 :ARG1 h))) 

sentence: The boy will sing if he is given money.
AMR: (s / sing-01 :ARG0 (b / boy) :condition (g / give-01 :ARG1 (m / money) :ARG2 b)) 

sentence: If the boy is given money, he will sing.
AMR: (s / sing-01 :ARG0 (b / boy) :condition (g / give-01 :ARG1 (m / money) :ARG2 b)) 

sentence: The boy will sing in case of a money donation.
AMR: (s / sing-01 :ARG0 (b / boy) :condition (g / give-01 :ARG1 (m / money) :ARG2 b)) 

sentence: The boy will sing unless he is given money.
AMR: (s / sing-01 :ARG0 (b / boy) :polarity - :condition (g / give-01 :ARG1 (m / money) :ARG2 b)) 

sentence: Unless the boy is given money, he will sing.
AMR: (s / sing-01 :ARG0 (b / boy) :polarity - :condition (g / give-01 :ARG1 (m / money) :ARG2 b)) 

sentence: The torpedo struck, causing the ship to be damaged.
AMR: (s / strike-01 :ARG0 (t / torpedo) :cause-of (d / damage-01 :ARG1 (s2 / ship))) 

sentence: The torpedo struck, causing damage to the ship.
AMR: (s / strike-01 :ARG0 (t / torpedo) :cause-of (d / damage-01 :ARG1 (s2 / ship))) 

sentence: The torpedo struck, damaging the ship.
AMR: (s / strike-01 :ARG0 (t / torpedo) :cause-of (d / damage-01 :ARG1 (s2 / ship))) 

sentence: The boy provided chocolate to the girl.
AMR: (p / provide-01 :ARG0 (b / boy) :ARG1 (c / chocolate) :ARG2 (g / girl)) 

sentence: The boy provided the girl with chocolate.
AMR: (p / provide-01 :ARG0 (b / boy) :ARG1 (c / chocolate) :ARG2 (g / girl)) 

sentence: They built the bridge in Maryland in December.
AMR: (b / build-01 :ARG0 (t / they) :ARG1 (b2 / bridge) :location (s / state :wiki "Maryland" :name (n / name :op1 "Maryland")) :time (d / date-entity :month 12)) 

sentence: The bridge was built by them in Maryland in December.
AMR: (b / build-01 :ARG0 (t / they) :ARG1 (b2 / bridge) :location (s / state :wiki "Maryland" :name (n / name :op1 "Maryland")) :time (d / date-entity :month 12)) 

sentence: the engine of the car
AMR: (e / engine :part-of (c / car)) 

sentence: the car’s engine
AMR: (e / engine :part-of (c / car)) 

sentence: a unit of the company
AMR: (u / unit :part-of (c / company)) 

sentence: the company’s unit
AMR: (u / unit :part-of (c / company)) 

sentence: the south of France
AMR: (s / south :part-of (c / country :wiki "France" :name (n / name :op1 "France"))) 

sentence: southern France
AMR: (s / south :part-of (c / country :wiki "France" :name (n / name :op1 "France"))) 

sentence: The boy won the race in the Olympics.
AMR: (w / win-01 :ARG0 (b / boy) :ARG1 (r / race-01 :subevent-of (g / game :wiki "Olympic_Games" :name (n / name :op1 "Olympics")))) 

sentence: a ring of gold
AMR: (r / ring :consist-of (g / gold)) 

sentence: a team of monkeys
AMR: (t / team :consist-of (m / monkey)) 

sentence: companies like IBM and Google
AMR: (c / company :example (a / and :op1 (c2 / company :wiki "IBM" :name (n / name :op1 "IBM")) :op2 (c3 / company :wiki "Google" :name (n2 / name :op1 "Google")))) 

sentence: He drove west.
AMR: (d / drive-01 :ARG0 (h / he) :direction (w / west)) 

sentence: We met three times.
AMR: (m / meet-03 :frequency 3 :ARG0 (w / we)) 

sentence: twice a year
AMR: (r / rate-entity-91 :ARG1 2 :ARG2 (t / temporal-quantity :quant 1 :unit (y / year))) 

sentence: We play bridge every Wednesday afternoon.
AMR: (p / play-01 :ARG0 (w / we) :ARG1 (b / bridge) :frequency (r / rate-entity-91 :ARG4 (d / date-entity :weekday (w2 / wednesday) :dayperiod (a / afternoon)))) 

sentence: The road goes on forever.
AMR: (g / go-on-15 :ARG1 (r / road) :extent (f / forever)) 

sentence: The boy from the college sang.
AMR: (s / sing-01 :ARG0 (b / boy :source (c / college))) 

sentence: The singing boy from the college
AMR: (b / boy :ARG0-of (s / sing-01) :source (c / college)) 

sentence: There is a boy from the college who sang.
AMR: (b / boy :ARG0-of (s / sing-01) :source (c / college)) 

sentence: The college that the singing boy came from
AMR: (c / college :source-of (b / boy :ARG0-of (s / sing-01))) 

sentence: The girl left because the boy arrived.
AMR: (l / leave-11 :ARG0 (g / girl) :ARG1-of (c / cause-01 :ARG0 (a / arrive-01 :ARG1 (b / boy)))) 

sentence: We know the knife that is in the drawer.
AMR: (k / know-01 :ARG0 (w / we) :ARG1 (k2 / knife :location (d / drawer))) 

sentence: We know the drawer where the knife is.
AMR: (k / know-01 :ARG0 (w / we) :ARG1 (d / drawer :location-of (k2 / knife))) 

sentence: We know the knife is in the drawer.
AMR: (k / know-01 :ARG0 (w / we) :ARG1 (b / be-located-at-91 :ARG1 (k2 / knife) :ARG2 (d / drawer))) 

sentence: We know the knife was not in the drawer yesterday.
AMR: (k / know-01 :ARG0 (w / we) :ARG1 (b / be-located-at-91 :ARG1 (k2 / knife) :ARG2 (d / drawer) :polarity - :time (y / yesterday))) 

sentence: The girl adjusted the machine.
AMR: (a / adjust-01 :ARG0 (g / girl) :ARG1 (m / machine)) 

sentence: The girl made an adjustment to the machine.
AMR: (a / adjust-01 :ARG0 (g / girl) :ARG1 (m / machine)) 

sentence: The boy bathed.
AMR: (t / bathe-01 :ARG0 (b / boy)) 

sentence: The boy took a bath.
AMR: (t / bathe-01 :ARG0 (b / boy)) 

sentence: The boy looked up the answer.
AMR: (l / look-up-05 :ARG0 (b / boy) :ARG1 (a / answer)) 

sentence: The boy looked the answer up.
AMR: (l / look-up-05 :ARG0 (b / boy) :ARG1 (a / answer)) 

sentence: The nation defaulted in June.
AMR: (s / default-01 :ARG1 (n / nation) :time (d / date-entity :month 6)) 

sentence: The man died in his house.
AMR: (d / die-01 :ARG1 (m / man) :location (h / house :poss m)) 

sentence: The nation defaulted after the war.
AMR: (s / default-01 :ARG0 (n / nation) :time (b / after :op1 (w / war-01))) 

sentence: The man died near his house.
AMR: (d / die-01 :ARG1 (m / man) :location (n / near :op1 (h / house :poss m))) 

sentence: The man died between the house and the river.
AMR: (d / die-01 :ARG1 (m / man) :location (b / between :op1 (h / house) :op2 (r / river))) 

sentence: He was sued in the case.
AMR: (s / sue-01 :ARG1 (h / he) :prep-in (c / case)) 

sentence: The brief was filed on behalf of the government.
AMR: (f / file-01 :ARG1 (b / brief) :prep-on-behalf-of (g / government)) 

sentence: According to government sources, the killing happened yesterday.
AMR: (s / say-01 :ARG0 (s2 / source :mod (g / government)) :ARG1 (k / kill-01 :time (y / yesterday))) 

sentence: Government sources said that the killing happened yesterday.
AMR: (s / say-01 :ARG0 (s2 / source :mod (g / government)) :ARG1 (k / kill-01 :time (y / yesterday))) 

sentence: The boy believes.
AMR: (b / believe-01 :ARG0 (b2 / boy)) 

sentence: the boy who believes
AMR: (b / boy :ARG0-of (b2 / believe-01)) 

sentence: the black car
AMR: (c / car :ARG1-of (b / black-04)) 

sentence: the car that is not black
AMR: (c / car :ARG1-of (b / black-04 :polarity -)) 

sentence: the Shanghai legal system
AMR: (s / system :mod (l / law) :mod (c / city :wiki "Shanghai" :name (n / name :op1 "Shanghai"))) 

sentence: She arrived earlier today.
AMR: (a / arrive-01 :ARG1 (s / she) :time (t / today) :time (b / before :op1 (n / now))) 

sentence: the boy who wants to believe the girl
AMR: (b / boy :ARG0-of (w / want-01 :ARG1 (b2 / believe-01 :ARG1 (g / girl))) :ARG0-of b2) 

sentence: the boy and the girl
AMR: (a / and :op1 (b / boy) :op2 (g / girl)) 

sentence: either the boy, the girl, or the dog
AMR: (a / either :op1 (b / boy) :op2 (g / girl) :op3 (d / dog)) 

sentence: the big, heavy ball
AMR: (b / ball :mod (b2 / big) :mod (h / heavy)) 

sentence: the big and heavy ball
AMR: (b / ball :mod (b2 / big) :mod (h / heavy)) 

sentence: There was shouting, and the boy left.
AMR: (a / and :op1 (c / shout-01) :op2 (l / leave-11 :ARG0 (b / boy))) 

sentence: There was shouting, but the boy stayed.
AMR: (c / contrast-01 :ARG1 (c2 / shout-01) :ARG2 (l / stay-01 :ARG1 (b / boy))) 

sentence: But the boy stayed.
AMR: (c / contrast-01 :ARG2 (l / stay-01 :ARG1 (b / boy))) 

sentence: The boy shouted and left.
AMR: (a / and :op1 (c / shout-01 :ARG0 (b / boy)) :op2 (l / leave-11 :ARG0 b)) 

sentence: The boy arrived and was promptly killed.
AMR: (a / and :op1 (a2 / arrive-01 :ARG1 (b / boy)) :op2 (l / kill-01 :ARG1 b :manner (p / prompt))) 

sentence: The boy arrived and left on Tuesday.
AMR: (a / and :time (d / date-entity :weekday (t / tuesday)) :op1 (a2 / arrive-01 :ARG1 (b / boy)) :op2 (l / leave-11 :ARG0 b)) 

sentence: On Tuesday, the boy arrived and left.
AMR: (a / and :time (d / date-entity :weekday (t / tuesday)) :op1 (a2 / arrive-01 :ARG1 (b / boy)) :op2 (l / leave-11 :ARG0 b)) 

sentence: The boys all left.
AMR: (l / leave-01 :ARG0 (b / boy :mod (a / all))) 

sentence: All the boys left.
AMR: (l / leave-01 :ARG0 (b / boy :mod (a / all))) 

sentence: Each of the boys left.
AMR: (l / leave-01 :ARG0 (b / boy :mod (a / all))) 

sentence: No boy left.
AMR: (b / boy :polarity - :ARG0-of (l / leave-01)) 

sentence: None of the boys left.
AMR: (b / boy :polarity - :ARG0-of (l / leave-01)) 

sentence: Not all of the boys left.
AMR: (l / leave-01 :ARG0 (b / boy :mod (a / all :polarity -))) 

sentence: Not everyone left.
AMR: (l / leave-01 :ARG0 (p / person :mod (a / all :polarity -))) 

sentence: The girl believes that the boy works hard.
AMR: (b / believe-01 :ARG0 (g / girl) :ARG1 (w / work-01 :ARG0 (b2 / boy) :manner (h / hard-02))) 

sentence: The girl believes that the boy works in a not-hard manner.
AMR: (b / believe-01 :ARG0 (g / girl) :ARG1 (w / work-01 :ARG0 (b2 / boy) :manner (h / hard-02 :polarity -))) 

sentence: The girl believes that the boy doesn’t work hard.
AMR: (b / believe-01 :ARG0 (g / girl) :ARG1 (w / work-01 :ARG0 (b2 / boy) :manner (h / hard-02 :polarity -))) 

sentence: The girl doesn’t believe that the boy works hard.
AMR: (b / believe-01 :ARG0 (g / girl) :ARG1 (w / work-01 :ARG0 (b2 / boy) :manner (h / hard-02 :polarity -))) 

sentence: The girl believes that the boy refrains from work, in a hard manner.
AMR: (b / believe-01 :ARG0 (g / girl) :ARG1 (w / work-01 :polarity - :ARG0 (b2 / boy) :manner (h / hard-02))) 

sentence: It’s not true that the girl believes the boy works hard.
AMR: (b / believe-01 :polarity - :ARG0 (g / girl) :ARG1 (w / work-01 :ARG0 (b2 / boy) :manner (h / hard-02))) 

sentence: The non-girl believes that the non-boy works hard.
AMR: (b / believe-01 :ARG0 (g / girl :polarity -) :ARG1 (w / work-01 :ARG0 (b2 / boy :polarity -) :manner (h / hard-02))) 

sentence: You are very beautiful.
AMR: (b / beautiful-02 :ARG1 (y / you) :degree (v / very)) 

sentence: The brighter boy.
AMR: (b / boy :ARG1-of (h / have-degree-91 :ARG2 (b2 / bright-03 :ARG1 b) :ARG3 (m / more))) 

sentence: The brightest boy.
AMR: (b / boy :ARG1-of (h / have-degree-91 :ARG2 (b2 / bright-03 :ARG1 b) :ARG3 (m / most))) 

sentence: a better plan
AMR: (p / plan :ARG1-of (h / have-degree-91 :ARG2 (g / good-02 :ARG1 p) :ARG3 (m / more))) 

sentence: a worse plan
AMR: (p / plan :ARG1-of (h / have-degree-91 :ARG2 (b / bad-07 :ARG1 p) :ARG3 (m / more))) 

sentence: a plan that is too extreme
AMR: (p / plan :ARG1-of (h / have-degree-91 :ARG2 (e / extreme) :ARG3 (t / too))) 

sentence: the girl is taller than the boy
AMR: (h / have-degree-91 :ARG1 (g / girl) :ARG2 (t / tall) :ARG3 (m / more) :ARG4 (b / boy)) 

sentence: she is the tallest girl on the team
AMR: (h / have-degree-91 :ARG1 (s / she) :ARG2 (t / tall) :ARG3 (m / most) :ARG5 (g / girl :ARG0-of (h2 / have-org-role-91 :ARG1 (t2 / team)))) 

sentence: It is too early to reach any conclusion.
AMR: (h / have-degree-91 :ARG2 (e / early) :ARG3 (t / too) :ARG6 (c / conclude-01)) 

sentence: He is not tall enough to ride the rollercoaster.
AMR: (h / have-degree-91 :polarity - :ARG1 (h2 / he) :ARG2 (t / tall) :ARG3 (e / enough) :ARG6 (r / ride-01 :ARG0 h2 :ARG1 (r2 / rollercoaster))) 

sentence: The boy wants to go.
AMR: (w / want-01 :ARG0 (b / boy) :ARG1 (g / go-02 :ARG0 b)) 

sentence: The boy wants to believe himself.
AMR: (w / want-01 :ARG0 (b / boy) :ARG1 (b2 / believe-01 :ARG0 b :ARG1 b)) 

sentence: He saw them.
AMR: (s / see-01 :ARG0 (h / he) :ARG1 (t / they)) 

sentence: his car
AMR: (c / car :poss (h / he)) 

sentence: the car of his
AMR: (c / car :poss (h / he)) 

sentence: the nation’s titans
AMR: (t / titan :poss (n / nation)) 

sentence: microbial virus
AMR: (v / virus :mod (m / microbe)) 

sentence: microbe virus
AMR: (v / virus :mod (m / microbe)) 

sentence: atomic war
AMR: (w / war :mod (a / atom)) 

sentence: Behavioral problems.
AMR: (p / problem :mod (b / behave-01)) 

sentence: Behavior problems.
AMR: (p / problem :mod (b / behave-01)) 

sentence: Problems with behavior.
AMR: (p / problem :mod (b / behave-01)) 

sentence: Problems behaving.
AMR: (p / problem :mod (b / behave-01)) 

sentence: the second planet
AMR: (p / planet :ord (o / ordinal-entity :value 2)) 

sentence: planet number 2
AMR: (p / planet :ord (o / ordinal-entity :value 2)) 

sentence: our first visit in 10 years
AMR: (v / visit-01 :ARG0 (w / we) :ord (o / ordinal-entity :value 1 :range (t / temporal-quantity :quant 10 :unit (y / year)))) 

sentence: Nine of the twenty soldiers died.
AMR: (d / die-01 :ARG1 (s / soldier :quant 9 :subset-of (s3 / soldier :quant 20))) 

sentence: Four of the five survivors had the disease, including three who were diagnosed.
AMR: (h / have-03 :ARG0 (p4 / person :quant 4 :subset-of (p2 / person :ARG0-of (s / survive-01) :quant 5) :subset (p3 / person :quant 3 :ARG1-of (d3 / diagnose-01))) :ARG1 (d / disease)) 

sentence: Nine of the twenty soldiers died.
AMR: (d / die-01 :ARG1 (s / soldier :quant 9 :ARG1-of (i / include-91 :ARG2 (s3 / soldier :quant 20)))) 

sentence: Mollie Brown
AMR: (p / person :wiki "Margaret_Brown" :name (n / name :op1 "Mollie" :op2 "Brown")) 

sentence: the orc-slaying Mollie Brown
AMR: (p / person :wiki "Margaret_Brown" :name (n / name :op1 "Mollie" :op2 "Brown") :ARG0-of (s / slay-01 :ARG1 (o / orc))) 

sentence: Mollie Brown, who slays orcs
AMR: (p / person :wiki "Margaret_Brown" :name (n / name :op1 "Mollie" :op2 "Brown") :ARG0-of (s / slay-01 :ARG1 (o / orc))) 

sentence: Titanic
AMR: (s / ship :wiki "RMS_Titanic" :name (n / name :op1 "Titanic")) 

sentence: the Titanic
AMR: (s / ship :wiki "RMS_Titanic" :name (n / name :op1 "Titanic")) 

sentence: the ship named Titanic
AMR: (s / ship :wiki "RMS_Titanic" :name (n / name :op1 "Titanic")) 

sentence: Marina del Rey
AMR: (c / city :wiki "Marina_del_Rey,_California" :name (n / name :op1 "Marina" :op2 "del" :op3 "Rey")) 

sentence: the city of Marina del Rey
AMR: (c / city :wiki "Marina_del_Rey,_California" :name (n / name :op1 "Marina" :op2 "del" :op3 "Rey")) 

sentence: Calif.
AMR: (s / state :wiki "California" :name (n / name :op1 "Calif.")) 

sentence: advertising rates
AMR: (r / rate :mod (a / advertise-01)) 

sentence: ad rates
AMR: (r / rate :mod (a / advertise-01)) 

sentence: Pascale
AMR: (p / person :wiki - :name (n / name :op1 "Pascale")) 

sentence: the chip maker
AMR: (c / company :ARG0-of (m / make-01 :ARG1 (c2 / chip))) 

sentence: the Nobel Prize
AMR: (a / award :wiki "Nobel_Prize" :name (n / name :op1 "Nobel" :op2 "Prize")) 

sentence: the American NSA
AMR: (g / government-organization :wiki "National_Security_Agency" :name (n / name :op1 "NSA") :mod (c / country :wiki "United_States" :name (n2 / name :op1 "America"))) 

sentence: the Lone Cypress
AMR: (n / natural-object :wiki "Lone_Cypress" :name (n2 / name :op2 "Lone" :op3 "Cypress")) 

sentence: the poet William Shakespeare
AMR: (p / poet :wiki "William_Shakespeare" :name (n / name :op1 "William" :op2 "Shakespeare")) 

sentence: William Shakespeare, the poet
AMR: (p / poet :wiki "William_Shakespeare" :name (n / name :op1 "William" :op2 "Shakespeare")) 

sentence: the village of Odinaboi
AMR: (v / village :wiki - :name (n / name :op1 "Odinaboi")) 

sentence: Doctor Wu
AMR: (d / doctor :wiki - :name (n / name :op1 "Wu")) 

sentence: Sudan's Darfur region
AMR: (c / country-region :wiki "Darfur" :name (n / name :op1 "Darfur") :location (c2 / country :wiki "Sudan" :name (n2 / name :op1 "Sudan"))) 

sentence: Germany's conservative CDU party
AMR: (p / political-party :wiki "Christian_Democratic_Union_of_Germany" :name (n / name :op1 "CDU") :mod (c / conservative) :mod (c2 / country :wiki "Germany" :name (n2 / name :op1 "Germany"))) 

sentence: the spaceship Shenzhou
AMR: (s / spaceship :wiki "Shenzhou_(spacecraft)" :name (n / name :op1 "Shenzhou")) 

sentence: the Shenzhou spacecraft
AMR: (s / spaceship :wiki "Shenzhou_(spacecraft)" :name (n / name :op1 "Shenzhou")) 

sentence: Mr. Wu
AMR: (p / person :wiki - :name (n / name :op1 "Mr." :op2 "Wu")) 

sentence: Mister Wu
AMR: (p / person :wiki - :name (n / name :op1 "Mr." :op2 "Wu")) 

sentence: Elsevier N.V. , the Dutch publishing group
AMR: (g / group :wiki "Reed_Elsevier#Elsevier_NV" :name (e / name :op1 "Elsevier" :op2 "N.V.") :mod (c / country :wiki "Netherlands" :name (h / name :op1 "Netherlands")) :ARG0-of (p2 / publish-01)) 

sentence: the poet Dr. Seuss
AMR: (d / doctor :wiki "Dr._Seuss" :name (n / name :op1 "Seuss") :mod (p / poet)) 

sentence: US President Obama
AMR: (p / person :wiki "Barack_Obama" :name (n / name :op1 "Obama") :ARG0-of (h / have-org-role-91 :ARG1 (c / country :wiki "United_States" :name (n2 / name :op1 "US")) :ARG2 (p2 / president))) 

sentence: He is my brother-in-law.
AMR: (h / have-rel-role-91 :ARG0 (h2 / he) :ARG1 (i / i) :ARG2 (b / brother-in-law)) 

sentence: forty thousand boys
AMR: (b / boy :quant 40000) 

sentence: 40,000 boys
AMR: (b / boy :quant 40000) 

sentence: one and half billion atoms
AMR: (a / atom :quant 1500000000) 

sentence: 1.5 billion atoms
AMR: (a / atom :quant 1500000000) 

sentence: a billion and half atoms
AMR: (a / atom :quant 1500000000) 

sentence: 1,500,000,000 atoms
AMR: (a / atom :quant 1500000000) 

sentence: several hundred boys
AMR: (b / boy :quant (s / several :op1 100)) 

sentence: more than four thousand boys
AMR: (b / boy :quant (m / more-than :op1 4000)) 

sentence: more than 4000 boys
AMR: (b / boy :quant (m / more-than :op1 4000)) 

sentence: between 4000 and 5000 boys
AMR: (b / boy :quant (m / between :op1 4000 :op2 5000)) 

sentence: between four and five thousand boys
AMR: (b / boy :quant (m / between :op1 4000 :op2 5000)) 

sentence: ten miles
AMR: (q / distance-quantity :unit (m / mile) :quant 10) 

sentence: 10 miles
AMR: (q / distance-quantity :unit (m / mile) :quant 10) 

sentence: 10-mile
AMR: (q / distance-quantity :unit (m / mile) :quant 10) 

sentence: about 10 miles
AMR: (a / about :op1 (q / distance-quantity :unit (m / mile) :quant 10)) 

sentence: The woman bought two gallons of milk.
AMR: (b / buy-01 :ARG0 (w / woman) :ARG1 (m / milk :quant (q / volume-quantity :unit (g / gallon) :quant 2))) 

sentence: 30 years
AMR: (t / temporal-quantity :unit (y / year) :quant 30) 

sentence: during the past 30 years
AMR: (b / before :op1 (n / now) :duration (t / temporal-quantity :unit (y / year) :quant 30)) 

sentence: 30 years ago
AMR: (b / before :op1 (n / now) :quant (t / temporal-quantity :unit (y / year) :quant 30)) 

sentence: more than 30 years ago
AMR: (b / before :op1 (n / now) :quant (m / more-than :op1 (t / temporal-quantity :unit (y / year) :quant 30))) 

sentence: three or four years
AMR: (o / or :op1 (t / temporal-quantity :unit (y / year) :quant 3) :op2 (t2 / temporal-quantity :unit (y2 / year) :quant 4)) 

sentence: six months or a year
AMR: (o / or :op1 (t / temporal-quantity :unit (m / month) :quant 6) :op2 (t2 / temporal-quantity :unit (y / year) :quant 1)) 

sentence: The plane crashed 50 miles east of Moscow.
AMR: (c / crash-01 :ARG1 (p / plane) :location (r / relative-position :op1 (g / city :wiki "Moscow" :name (n / name :op1 "Moscow")) :quant (d / distance-quantity :unit (m / mile) :quant 50) :direction (e / east))) 

sentence: The plane crash occurred 50 miles east of Moscow.
AMR: (c / crash-01 :ARG1 (p / plane) :location (r / relative-position :op1 (g / city :wiki "Moscow" :name (n / name :op1 "Moscow")) :quant (d / distance-quantity :unit (m / mile) :quant 50) :direction (e / east))) 

sentence: A large number of people gathered.
AMR: (g / gather-01 :ARG0 (p / person :quant (n / number :mod (l / large)))) 

sentence: The number of people increased.
AMR: (i / increase-01 :ARG1 (n / number :quant-of (p / person))) 

sentence: C$20
AMR: (q / monetary-quantity :quant 20 :unit (d / dollar :mod (e / country :wiki "Canada" :name (n / name :op1 "Canada")))) 

sentence: 20 Canadian dollars
AMR: (q / monetary-quantity :quant 20 :unit (d / dollar :mod (e / country :wiki "Canada" :name (n / name :op1 "Canada")))) 

sentence: 7.9 on the Richter scale
AMR: (q / seismic-quantity :quant 7.9 :scale (r / richter)) 

sentence: He sold as many cars as his competitor.
AMR: (s / sell-01 :ARG0 (h / he) :ARG1 (c / car :ARG1-of (h2 / have-quant-91 :ARG3 (e2 / equal) :ARG4 (c3 / car :ARG1-of (s2 / sell-01 :ARG0 (p / person :ARG0-of (c2 / compete-02 :ARG1 h))))))) 

sentence: He sold the most cars of his competitors.
AMR: (s / sell-01 :ARG0 (h / he) :ARG1 (c / car :ARG1-of (h2 / have-quant-91 :ARG3 (m / most) :ARG5 (c3 / car :ARG1-of (s2 / sell-01 :ARG0 (p / person :ARG0-of (c2 / compete-02 :ARG1 h))))))) 

sentence: I had scarcely enough drinking water to last a week.
AMR: (h / have-03 :ARG0 (i / i) :ARG1 (w / water :purpose (d2 / drink-01 :ARG0 i) :ARG1-of (h3 / have-quant-91 :ARG3 (e / enough :mod (s / scarce)) :ARG6 (l / last-03 :ARG1 w :ARG2 (t / temporal-quantity :quant 1 :unit (w2 / week)) :ARG3 i)))) 

sentence: The aircraft's velocity reached three times the speed of sound.
AMR: (r / reach-01 :ARG0 (v / velocity :poss (a / aircraft)) :ARG1 (p / product-of :op1 3 :op2 (s / speed :poss (s2 / sound)))) 

sentence: Patrick Makau finished the marathon in 2 hours, 3 minutes and 38 seconds.
AMR: (f / finish-01 :ARG0 (p / person :wiki "Patrick_Makau_Musyoki" :name (n / name :op1 "Patrick" :op2 "Makau")) :ARG1 (r / run-02 :ARG0 p :ARG1 (m / marathon) :duration (s2 / sum-of :op1 (t2 / temporal-quantity :quant 2 :unit (h / hour)) :op2 (t3 / temporal-quantity :quant 3 :unit (m2 / minute)) :op3 (t4 / temporal-quantity :quant 38 :unit (s3 / second))))) 

sentence: February 29, 2012
AMR: (d / date-entity :year 2012 :month 2 :day 29) 

sentence: 29 February 2012
AMR: (d / date-entity :year 2012 :month 2 :day 29) 

sentence: 2/29/2012
AMR: (d / date-entity :year 2012 :month 2 :day 29) 

sentence: 2012
AMR: (d / date-entity :year 2012) 

sentence: the year 2012
AMR: (d / date-entity :year 2012) 

sentence: April
AMR: (d / date-entity :month 4) 

sentence: Friday
AMR: (d / date-entity :weekday (f / friday)) 

sentence: February, 2012
AMR: (d / date-entity :year 2012 :month 2) 

sentence: Wednesday, February 29
AMR: (d / date-entity :month 2 :day 29 :weekday (w / wednesday)) 

sentence: the 29th
AMR: (d / date-entity :day 29) 

sentence: Wednesday, February 29, 16:30 PST
AMR: (d / date-entity :month 2 :day 29 :weekday (w / wednesday) :time 16:30 :timezone (z / PST)) 

sentence: 16:30
AMR: (d / date-entity :time 16:30) 

sentence: 4:30pm
AMR: (d / date-entity :time 16:30) 

sentence: 4:30 in the afternoon
AMR: (d / date-entity :time 16:30) 

sentence: half past four
AMR: (d / date-entity :time 16:30) 

sentence: February 29, 24th year of Heisei era
AMR: (d / date-entity :era (h / heisei) :year 24 :month 2 :day 29 :calendar (j / country :wiki "Japan" :name (n / name :op1 "Japan"))) 

sentence: 4th quarter, 2011
AMR: (d / date-entity :year 2011 :quarter 4) 

sentence: 2011Q4
AMR: (d / date-entity :year 2011 :quarter 4) 

sentence: Summer 2011
AMR: (d / date-entity :year 2011 :season (s / summer)) 

sentence: Winter 2011-2012
AMR: (d / date-entity :year 2011 :year2 2012 :season (w / winter)) 

sentence: academic year 2011-2012
AMR: (d / date-entity :year 2011 :year2 2012 :calendar (y / year :mod (a / academia))) 

sentence: United States government fiscal year 2012
AMR: (d / date-entity :year 2012 :calendar (y / year :mod (f / finance) :mod (g / government-organization :ARG0-of (g2 / govern-01 :ARG1 (c / country :wiki "United_States" :name (n / name :op1 "United" :op2 "States")))))) 

sentence: March 8-9, 2012
AMR: (d / date-interval :op1 (d2 / date-entity :year 2012 :month 3 :day 8) :op2 (d3 / date-entity :year 2012 :month 3 :day 9)) 

sentence: Sept. 1, 1939 - May 8, 1945
AMR: (d / date-interval :op1 (d2 / date-entity :year 1939 :month 9 :day 1) :op2 (d3 / date-entity :year 1945 :month 5 :day 8)) 

sentence: 25%
AMR: (p / percentage-entity :value 25) 

sentence: twenty-five percent
AMR: (p / percentage-entity :value 25) 

sentence: 25 percent
AMR: (p / percentage-entity :value 25) 

sentence: 1-800-555-1212
AMR: (p / phone-number-entity :value "1-800-555-1212") 

sentence: 1 (800) 555-1212
AMR: (p / phone-number-entity :value "1-800-555-1212") 

sentence: president@whitehouse.gov
AMR: (e / email-address-entity :value "president@whitehouse.gov") 

sentence: www.whitehouse.gov
AMR: (u / url-entity :value "www.whitehouse.gov") 

sentence: The woman who lost her scarf.
AMR: (w / woman :ARG0-of (l / lose-02 :ARG1 (s / scarf :poss w))) 

sentence: a procedure to ensure quality
AMR: (p / procedure :purpose (e / ensure-01 :ARG0 p :ARG1 (q / quality))) 

sentence: a procedure to ensure quality
AMR: (p / procedure :ARG1-of (h / have-purpose-91 :ARG2 (e / ensure-01 :ARG0 p :ARG1 (q / quality)))) 

sentence: the boy likes to be believed
AMR: (l / like-01 :ARG0 (b / boy) :ARG1 (b2 / believe-01 :ARG1 b)) 

sentence: the boy likes to be believed
AMR: (l / like-01 :ARG0 (b / boy :ARG1-of (b2 / believe-01)) :ARG1 b2)
